<svg version="1.2" baseProfile="tiny-ps" xmlns="http://www.w3.org/2000/svg" viewBox="0 0 1001 380" width="1001" height="380">
	<title>visa-white-svg</title>
	<style>
		tspan { white-space:pre }
		.shp0 { fill: #00579f } 
		.shp1 { fill: #faa61a } 
	</style>
	<g id="g4158">
		<path id="polygon9" class="shp0" d="M433.35 346.98L352.34 346.98L403.01 33.68L484.02 33.68L433.35 346.98Z" />
		<path id="path11" class="shp0" d="M727.02 41.34C711.04 35 685.7 28 654.36 28C574.36 28 518.03 70.66 517.68 131.65C517.02 176.65 558.02 201.65 588.68 216.65C620.02 231.98 630.68 241.99 630.68 255.66C630.36 276.64 605.35 286.32 582.03 286.32C549.68 286.32 532.35 281.33 506.02 269.65L495.35 264.65L484.01 334.98C503.01 343.63 538.02 351.32 574.36 351.65C659.36 351.65 714.7 309.65 715.36 244.66C715.68 208.99 694.03 181.66 647.36 159.33C619.03 145 601.67 135.33 601.67 120.66C602.01 107.33 616.35 93.67 648.33 93.67C674.67 93 694.02 99.33 708.68 105.67L716.01 108.99L727.02 41.34L727.02 41.34L727.02 41.34Z" />
		<path id="path13" fill-rule="evenodd" class="shp0" d="M934.69 33.68L1000.05 346.98L925.04 346.98C925.04 346.98 917.7 310.98 915.37 299.98C903.38 299.98 820.69 299.98 811.36 299.98C808.35 308.31 794.36 346.98 794.36 346.98L709.36 346.98L829.69 59.67C838.02 39.34 852.71 33.68 872.03 33.68L934.69 33.68ZM834.69 235.99C850.69 235.99 889.37 235.99 902.03 235.99C898.7 220.33 883.36 145.33 883.36 145.33L877.7 118.34C873.7 130 866.7 149 867.04 148.33C867.04 148.33 841.37 217.99 834.69 235.99Z" />
		<path id="path15" class="shp0" d="M284.68 33.68L205.34 247.32L196.67 203.99C182.01 154 136 99.68 84.67 72.67L157.34 346.65L243.01 346.65L370.34 33.68L284.68 33.68L284.68 33.68L284.68 33.68Z" />
		<path id="path17" class="shp1" d="M131.67 33.68L1.33 33.68L0 40.01C101.67 66.01 169.01 128.68 196.67 204.01L168.34 60.02C163.67 40.01 149.34 34.34 131.67 33.68L131.67 33.68Z" />
	</g>
</svg>